{0}-PB\{0}-A\{0}-RYSUNKI\DWG
{0}-PB\{0}-A\{0}-RYSUNKI\PDF
{0}-PB\{0}-A\{0}-MODEL REVIT
{0}-PB\{0}-A\{0}-OPISY
{0}-PB\{0}-A\{0}-RYSUNKI
{0}-PB\{0}-D\{0}-RYSUNKI\DWG
{0}-PB\{0}-D\{0}-RYSUNKI\PDF
{0}-PB\{0}-D\{0}-OPISY
{0}-PB\{0}-D\{0}-RYSUNKI
{0}-PB\{0}-E\{0}-RYSUNKI\DWG
{0}-PB\{0}-E\{0}-RYSUNKI\PDF
{0}-PB\{0}-E\{0}-OPISY
{0}-PB\{0}-E\{0}-RYSUNKI
{0}-PB\{0}-K\{0}-K-BETON\{0}-K-KB-OBLICZENIA\{0}-K-KB-OBL\{0}-BELKI
{0}-PB\{0}-K\{0}-K-BETON\{0}-K-KB-OBLICZENIA\{0}-K-KB-OBL\{0}-STATYKA
{0}-PB\{0}-K\{0}-K-BETON\{0}-K-KB-OBLICZENIA\{0}-K-KB-OBL\{0}-STOPY
{0}-PB\{0}-K\{0}-K-BETON\{0}-K-KB-OBLICZENIA\{0}-K-KB-OBL\{0}-SLUPY
{0}-PB\{0}-K\{0}-K-BETON\{0}-K-KB-OBLICZENIA\{0}-K-KB-OBL\{0}-LAWY
{0}-PB\{0}-K\{0}-K-BETON\{0}-K-KB-OBLICZENIA\{0}-K-KB-OBL
{0}-PB\{0}-K\{0}-K-BETON\{0}-K-KB-OBLICZENIA\{0}-K-KB-OBLICZENIA WYDRUK
{0}-PB\{0}-K\{0}-K-BETON\{0}-K-KB-OBLICZENIA\{0}-K-KB-ZEBRANIE OBCIAZEN
{0}-PB\{0}-K\{0}-K-BETON\{0}-K-KB-RYSUNKI\DWG
{0}-PB\{0}-K\{0}-K-BETON\{0}-K-KB-RYSUNKI\PDF
{0}-PB\{0}-K\{0}-K-BETON\{0}-K-KB-RYSUNKI\RCAD
{0}-PB\{0}-K\{0}-K-BETON\{0}-K-KB-RYSUNKI\SPIS RYSUNKOW
{0}-PB\{0}-K\{0}-K-BETON\{0}-K-KB-MODEL REVIT
{0}-PB\{0}-K\{0}-K-BETON\{0}-K-KB-NOTATKI
{0}-PB\{0}-K\{0}-K-BETON\{0}-K-KB-OBLICZENIA
{0}-PB\{0}-K\{0}-K-BETON\{0}-K-KB-OPIS TECHNICZNY
{0}-PB\{0}-K\{0}-K-BETON\{0}-K-KB-RYSUNKI
{0}-PB\{0}-K\{0}-K-DREWNO\{0}-K-KD-OBLICZENIA\{0}-K-KS-OBL
{0}-PB\{0}-K\{0}-K-DREWNO\{0}-K-KD-OBLICZENIA\{0}-K-KS-OBLICZENIA WYDRUK
{0}-PB\{0}-K\{0}-K-DREWNO\{0}-K-KD-OBLICZENIA\{0}-ZEBRANIE OBCIAZEN
{0}-PB\{0}-K\{0}-K-DREWNO\{0}-K-KD-RYSUNKI\DWG
{0}-PB\{0}-K\{0}-K-DREWNO\{0}-K-KD-RYSUNKI\PDF
{0}-PB\{0}-K\{0}-K-DREWNO\{0}-K-KD-RYSUNKI\SPIS RYSUNKOW
{0}-PB\{0}-K\{0}-K-DREWNO\{0}-K-KD-MODEL
{0}-PB\{0}-K\{0}-K-DREWNO\{0}-K-KD-OBLICZENIA
{0}-PB\{0}-K\{0}-K-DREWNO\{0}-K-KD-OPIS TECHNICZNY
{0}-PB\{0}-K\{0}-K-DREWNO\{0}-K-KD-RYSUNKI
{0}-PB\{0}-K\{0}-K-STAL\{0}-K-KS-OBLICZENIA\{0}-K-KS-OBL\{0}-POLACZENIA
{0}-PB\{0}-K\{0}-K-STAL\{0}-K-KS-OBLICZENIA\{0}-K-KS-OBL\{0}-STATYKA
{0}-PB\{0}-K\{0}-K-STAL\{0}-K-KS-OBLICZENIA\{0}-K-KS-OBL
{0}-PB\{0}-K\{0}-K-STAL\{0}-K-KS-OBLICZENIA\{0}-K-KS-OBLICZENIA WYDRUK
{0}-PB\{0}-K\{0}-K-STAL\{0}-K-KS-OBLICZENIA\{0}-K-KS-ZEBRANIE OBCIAZEN
{0}-PB\{0}-K\{0}-K-STAL\{0}-K-KS-RYSUNKI\BMF
{0}-PB\{0}-K\{0}-K-STAL\{0}-K-KS-RYSUNKI\DWG
{0}-PB\{0}-K\{0}-K-STAL\{0}-K-KS-RYSUNKI\PDF
{0}-PB\{0}-K\{0}-K-STAL\{0}-K-KS-RYSUNKI\SPIS RYSUNKOW
{0}-PB\{0}-K\{0}-K-STAL\{0}-K-KS-MODEL BOCAD
{0}-PB\{0}-K\{0}-K-STAL\{0}-K-KS-MODEL AS
{0}-PB\{0}-K\{0}-K-STAL\{0}-K-KS-NOTATKI
{0}-PB\{0}-K\{0}-K-STAL\{0}-K-KS-OBLICZENIA
{0}-PB\{0}-K\{0}-K-STAL\{0}-K-KS-OPIS TECHNICZNY
{0}-PB\{0}-K\{0}-K-STAL\{0}-K-KS-RYSUNKI
{0}-PB\{0}-K\{0}-K-BETON
{0}-PB\{0}-K\{0}-K-DREWNO
{0}-PB\{0}-K\{0}-K-STAL
{0}-PB\{0}-PZT\{0}-RYSUNKI\DWG
{0}-PB\{0}-PZT\{0}-RYSUNKI\PDF
{0}-PB\{0}-PZT\{0}-OPISY
{0}-PB\{0}-PZT\{0}-RYSUNKI
{0}-PB\{0}-S\{0}-RYSUNKI\DWG
{0}-PB\{0}-S\{0}-RYSUNKI\PDF
{0}-PB\{0}-S\{0}-OPISY
{0}-PB\{0}-S\{0}-RYSUNKI
{0}-PB\{0}-T\{0}-RYSUNKI\DWG
{0}-PB\{0}-T\{0}-RYSUNKI\PDF
{0}-PB\{0}-T\{0}-OPISY
{0}-PB\{0}-T\{0}-RYSUNKI
{0}-PB\{0}-A
{0}-PB\{0}-D
{0}-PB\{0}-E
{0}-PB\{0}-K
{0}-PB\{0}-PZT
{0}-PB\{0}-S
{0}-PB\{0}-T
{0}-PB
